Wl	El*Sl*dl Skin damage factor ISO9050:2003
300	0.000000
305	0.168176
310	0.230555
315	0.187429
320	0.102699
325	0.050895
330	0.034134
335	0.030432
340	0.027729
345	0.024094
350	0.021930
355	0.019298
360	0.017028
365	0.016157
370	0.015108
375	0.013298
380	0.011471
385	0.009440
390	0.008009
395	0.008165
400	0.003953
	
	
	
	
	
	
	
	
	
	
	
	
	
	
	
	
	
	
	
	
