nm	wl ISO9845-1:1992 AM1.5(ISO 9050)
300	0.000000
305	0.000057
310	0.000236
315	0.000554
320	0.000916
325	0.001309
330	0.001914
335	0.002018
340	0.002189
345	0.002260
350	0.002445
355	0.002555
360	0.002683
365	0.003020
370	0.003359
375	0.003509
380	0.003600
385	0.003529
390	0.003551
395	0.004294
400	0.007812
410	0.011638
420	0.011877
430	0.011347
440	0.013246
450	0.015343
460	0.016166
470	0.016178
480	0.016402
490	0.015794
500	0.015801
510	0.015973
520	0.015357
530	0.015867
540	0.015827
550	0.015844
560	0.015590
570	0.015256
580	0.014745
590	0.014330
600	0.014663
610	0.015030
620	0.014859
630	0.014622
640	0.014526
650	0.014445
660	0.014313
670	0.014023
680	0.012838
690	0.011788
700	0.012453
710	0.012798
720	0.010589
730	0.011233
740	0.012175
750	0.012181
760	0.009515
770	0.010479
780	0.011381
790	0.011262
800	0.028718
850	0.048240
900	0.040297
950	0.021384
1000	0.036097
1050	0.034110
1100	0.018861
1150	0.013228
1200	0.022551
1250	0.023376
1300	0.017756
1350	0.003743
1400	0.000741
1450	0.003792
1500	0.009693
1550	0.013693
1600	0.012203
1650	0.010615
1700	0.007256
1750	0.007183
1800	0.002157
1850	0.000398
1900	0.000082
1950	0.001087
2000	0.003024
2050	0.003988
2100	0.004229
2150	0.004142
2200	0.003690
2250	0.003592
2300	0.003436
2350	0.003163
2400	0.002233
2450	0.001202
2500	0.000475