wl	USA  ISO 13837
300	0.000000
305	0.001045
310	0.004634
315	0.011800
320	0.019807
325	0.027019
330	0.043271
335	0.042703
340	0.047644
345	0.048041
350	0.052948
355	0.054947
360	0.056946
365	0.064930
370	0.072925
375	0.075901
380	0.077991
385	0.073890
390	0.073777
395	0.092335
400	0.055446
