WL	Cl*Sl*dL CIE damage factor ISO9050
300	0.000000
305	0.001003
310	0.003896
315	0.008597
320	0.013402
325	0.018028
330	0.024831
335	0.024648
340	0.025183
345	0.024487
350	0.024949
355	0.024551
360	0.024278
365	0.025734
370	0.026962
375	0.026522
380	0.025624
385	0.023656
390	0.022418
395	0.025529
400	0.043742
410	0.057799
420	0.052317
430	0.044328
440	0.045896
450	0.047150
460	0.044062
470	0.039108
480	0.035167
490	0.030034
500	0.026650
510	0.023893
520	0.020373
530	0.018671
540	0.016517
550	0.014665
560	0.012799
570	0.011108
580	0.009522
590	0.008208
600	0.003695
